EESchema Schematic File Version 4
EELAYER 30 0
EELAYER END
$Descr A4 11693 8268
encoding utf-8
Sheet 1 1
Title "Charge Owl overnight charging supervisor"
Date "2020-01-20"
Rev "1.3"
Comp "Wedgie"
Comment1 ""
Comment2 ""
Comment3 ""
Comment4 ""
$EndDescr
$Comp
L Connector:USB_A J1
U 1 1 5E1A9C56
P 3100 1850
F 0 "J1" H 3157 2317 50  0000 C CNN
F 1 "USB_A" H 3157 2226 50  0000 C CNN
F 2 "Connectors:USB_A" H 3250 1800 50  0001 C CNN
F 3 " ~" H 3250 1800 50  0001 C CNN
	1    3100 1850
	1    0    0    -1  
$EndComp
$Comp
L power:GND #PWR04
U 1 1 5E1C1AED
P 3000 2250
F 0 "#PWR04" H 3000 2000 50  0001 C CNN
F 1 "GND" H 3005 2077 50  0000 C CNN
F 2 "" H 3000 2250 50  0001 C CNN
F 3 "" H 3000 2250 50  0001 C CNN
	1    3000 2250
	1    0    0    -1  
$EndComp
Wire Wire Line
	3100 2250 3000 2250
Connection ~ 3000 2250
$Comp
L power:GND #PWR024
U 1 1 5E1C222A
P 3150 6050
F 0 "#PWR024" H 3150 5800 50  0001 C CNN
F 1 "GND" H 3155 5877 50  0000 C CNN
F 2 "" H 3150 6050 50  0001 C CNN
F 3 "" H 3150 6050 50  0001 C CNN
	1    3150 6050
	1    0    0    -1  
$EndComp
Connection ~ 3100 2250
Text GLabel 3750 5650 2    50   Input ~ 0
CHRG_EN
$Comp
L power:+5V #PWR017
U 1 1 5E224E5C
P 3150 4150
F 0 "#PWR017" H 3150 4000 50  0001 C CNN
F 1 "+5V" H 3165 4323 50  0000 C CNN
F 2 "" H 3150 4150 50  0001 C CNN
F 3 "" H 3150 4150 50  0001 C CNN
	1    3150 4150
	1    0    0    -1  
$EndComp
$Comp
L Device:C C6
U 1 1 5E2252F6
P 2950 4150
F 0 "C6" V 3202 4150 50  0000 C CNN
F 1 "100n" V 3111 4150 50  0000 C CNN
F 2 "Capacitors_SMD:C_0603" H 2988 4000 50  0001 C CNN
F 3 "~" H 2950 4150 50  0001 C CNN
	1    2950 4150
	0    -1   -1   0   
$EndComp
Wire Wire Line
	3100 4150 3150 4150
Wire Wire Line
	3150 4250 3150 4150
Connection ~ 3150 4150
$Comp
L power:GND #PWR016
U 1 1 5E26FFDC
P 2800 4150
F 0 "#PWR016" H 2800 3900 50  0001 C CNN
F 1 "GND" H 2800 4000 50  0000 C CNN
F 2 "" H 2800 4150 50  0001 C CNN
F 3 "" H 2800 4150 50  0001 C CNN
	1    2800 4150
	1    0    0    -1  
$EndComp
Wire Wire Line
	4250 1950 4250 2250
$Comp
L Device:C C2
U 1 1 5E1CF676
P 4250 1800
F 0 "C2" H 4135 1754 50  0000 R CNN
F 1 "22u" H 4135 1845 50  0000 R CNN
F 2 "Capacitors_SMD:C_0603" H 4288 1650 50  0001 C CNN
F 3 "~" H 4250 1800 50  0001 C CNN
	1    4250 1800
	-1   0    0    1   
$EndComp
Text GLabel 3400 1950 2    50   Input ~ 0
DM
Text GLabel 3750 5450 2    50   Input ~ 0
Vdp_src
$Comp
L MCU_Microchip_ATtiny:ATtiny44A-SSU U2
U 1 1 5E1B70AC
P 3150 5150
F 0 "U2" H 3550 6000 50  0000 R CNN
F 1 "ATtiny84A-SSU" H 3250 5150 50  0000 R CNN
F 2 "SMD_Packages:SOIC-14_N" H 3150 5150 50  0001 C CIN
F 3 "http://ww1.microchip.com/downloads/en/DeviceDoc/doc8183.pdf" H 3150 5150 50  0001 C CNN
	1    3150 5150
	1    0    0    -1  
$EndComp
Text GLabel 3750 5750 2    50   Input ~ 0
~RST
Text GLabel 3750 5550 2    50   Input ~ 0
indicators
Text GLabel 3750 4650 2    50   Input ~ 0
ADC_A
Text GLabel 3750 4750 2    50   Input ~ 0
ADC_B
Wire Notes Line
	4050 4650 4100 4650
Wire Notes Line
	4100 4650 4100 4750
Wire Notes Line
	4100 4750 4050 4750
Text Notes 4100 4750 0    50   ~ 0
(20x gain, diff 10-bit ADC, 1.1V AREF)
$Comp
L Device:R R2
U 1 1 5E8D7B96
P 3650 1700
F 0 "R2" H 3720 1746 50  0000 L CNN
F 1 "4k7" V 3650 1650 50  0000 L CNN
F 2 "" V 3580 1700 50  0001 C CNN
F 3 "~" H 3650 1700 50  0001 C CNN
	1    3650 1700
	1    0    0    -1  
$EndComp
Connection ~ 4250 1400
$Comp
L power:+5V #PWR01
U 1 1 5E20FEF4
P 4250 1400
F 0 "#PWR01" H 4250 1250 50  0001 C CNN
F 1 "+5V" H 4265 1573 50  0000 C CNN
F 2 "" H 4250 1400 50  0001 C CNN
F 3 "" H 4250 1400 50  0001 C CNN
	1    4250 1400
	1    0    0    -1  
$EndComp
Wire Wire Line
	4250 1400 4250 1650
Wire Wire Line
	3400 1400 3400 1650
Wire Wire Line
	3700 1400 4250 1400
$Comp
L Device:Fuse TSF1
U 1 1 5E4BB643
P 3550 1400
F 0 "TSF1" V 3353 1400 50  0000 C CNN
F 1 "Fuse" V 3444 1400 50  0000 C CNN
F 2 "" V 3480 1400 50  0001 C CNN
F 3 "~" H 3550 1400 50  0001 C CNN
	1    3550 1400
	0    1    1    0   
$EndComp
Wire Wire Line
	3800 1550 3650 1550
Text GLabel 3750 5250 2    50   Input ~ 0
DM
Wire Wire Line
	3100 2250 3650 2250
$Comp
L Device:R R4
U 1 1 5EB18663
P 3650 2000
F 0 "R4" H 3720 2046 50  0000 L CNN
F 1 "10k" V 3650 1950 50  0000 L CNN
F 2 "" V 3580 2000 50  0001 C CNN
F 3 "~" H 3650 2000 50  0001 C CNN
	1    3650 2000
	1    0    0    -1  
$EndComp
Wire Wire Line
	3650 2150 3650 2250
Connection ~ 3650 2250
Wire Wire Line
	3650 2250 4250 2250
Text GLabel 3800 1550 2    50   Input ~ 0
Vdp_src
Wire Wire Line
	3400 1850 3650 1850
Connection ~ 3650 1850
Text GLabel 3900 4850 2    50   Input ~ 0
Ilimit_1500
Text GLabel 3900 5050 2    50   Input ~ 0
Ilimit_500
Wire Wire Line
	3900 5050 3750 5050
Wire Wire Line
	3900 4850 3750 4850
Text GLabel 3750 4950 2    50   Input ~ 0
SCL
Text GLabel 3750 5150 2    50   Input ~ 0
SDA
Wire Notes Line
	2850 1150 2850 2500
Text Notes 8350 2300 0    50   ~ 0
TODO: consider more buttons for a more intuitive inerface\n(using voltage dividers, on the same pin)
Wire Notes Line
	10600 4950 10600 3100
Wire Notes Line
	6800 4950 10600 4950
Wire Notes Line
	6800 3100 6800 4950
Wire Notes Line
	10600 3100 6800 3100
$Comp
L power:GND #PWR018
U 1 1 5E1C0F7C
P 8200 3750
F 0 "#PWR018" H 8200 3500 50  0001 C CNN
F 1 "GND" H 8205 3577 50  0000 C CNN
F 2 "" H 8200 3750 50  0001 C CNN
F 3 "" H 8200 3750 50  0001 C CNN
	1    8200 3750
	1    0    0    -1  
$EndComp
Wire Wire Line
	8350 4150 8150 4150
$Comp
L Device:LED D_CHRG_ACTIVITY1
U 1 1 5E24AE31
P 7600 4250
F 0 "D_CHRG_ACTIVITY1" H 7700 4100 50  0000 C CNN
F 1 "yellow" H 7650 4150 50  0000 C CNN
F 2 "Diodes_SMD:D_0603" H 7600 4250 50  0001 C CNN
F 3 "~" H 7600 4250 50  0001 C CNN
	1    7600 4250
	-1   0    0    1   
$EndComp
Wire Wire Line
	7750 4250 8350 4250
$Comp
L power:+5V #PWR020
U 1 1 5E25A528
P 6900 4250
F 0 "#PWR020" H 6900 4100 50  0001 C CNN
F 1 "+5V" H 6915 4423 50  0000 C CNN
F 2 "" H 6900 4250 50  0001 C CNN
F 3 "" H 6900 4250 50  0001 C CNN
	1    6900 4250
	1    0    0    -1  
$EndComp
Wire Wire Line
	6950 4250 6900 4250
$Comp
L Device:R R13
U 1 1 5E2E065B
P 7100 4250
F 0 "R13" V 7000 4250 50  0000 C CNN
F 1 "10k" V 7100 4250 50  0000 C CNN
F 2 "Resistors_SMD:R_0603" V 7030 4250 50  0001 C CNN
F 3 "~" H 7100 4250 50  0001 C CNN
	1    7100 4250
	0    1    1    0   
$EndComp
$Comp
L power:GND #PWR023
U 1 1 5E33B7E8
P 8150 4700
F 0 "#PWR023" H 8150 4450 50  0001 C CNN
F 1 "GND" H 8155 4527 50  0000 C CNN
F 2 "" H 8150 4700 50  0001 C CNN
F 3 "" H 8150 4700 50  0001 C CNN
	1    8150 4700
	1    0    0    -1  
$EndComp
Wire Wire Line
	8150 4350 8150 4150
Connection ~ 8150 4150
Wire Wire Line
	8150 4150 7900 4150
$Comp
L power:+5V #PWR022
U 1 1 5E651C6F
P 8500 4600
F 0 "#PWR022" H 8500 4450 50  0001 C CNN
F 1 "+5V" H 8515 4773 50  0000 C CNN
F 2 "" H 8500 4600 50  0001 C CNN
F 3 "" H 8500 4600 50  0001 C CNN
	1    8500 4600
	1    0    0    -1  
$EndComp
Wire Wire Line
	8500 4600 8800 4600
Wire Wire Line
	7450 4250 7250 4250
$Comp
L power:+5V #PWR019
U 1 1 5E2024E9
P 7900 4000
F 0 "#PWR019" H 7900 3850 50  0001 C CNN
F 1 "+5V" H 7915 4173 50  0000 C CNN
F 2 "" H 7900 4000 50  0001 C CNN
F 3 "" H 7900 4000 50  0001 C CNN
	1    7900 4000
	1    0    0    -1  
$EndComp
Wire Wire Line
	7900 4000 7900 4150
Wire Wire Line
	8150 4700 8150 4650
Wire Wire Line
	7750 4350 8150 4350
Wire Wire Line
	7750 4650 8150 4650
$Comp
L Device:C C7
U 1 1 5E4AED58
P 7750 4500
F 0 "C7" H 7635 4454 50  0000 R CNN
F 1 "22u" H 7635 4545 50  0000 R CNN
F 2 "Capacitors_SMD:C_0603" H 7788 4350 50  0001 C CNN
F 3 "~" H 7750 4500 50  0001 C CNN
	1    7750 4500
	-1   0    0    1   
$EndComp
Connection ~ 8150 4350
Connection ~ 8150 4650
$Comp
L Device:C C8
U 1 1 5E2F8D9E
P 8150 4500
F 0 "C8" H 8050 4450 50  0000 R CNN
F 1 "100n" H 8050 4550 50  0000 R CNN
F 2 "Capacitors_SMD:C_0603" H 8188 4350 50  0001 C CNN
F 3 "~" H 8150 4500 50  0001 C CNN
	1    8150 4500
	-1   0    0    1   
$EndComp
Text GLabel 8350 4050 0    50   Input ~ 0
ILIM_SET
Wire Wire Line
	8350 3750 8350 3950
Connection ~ 5550 3500
Wire Wire Line
	5850 3500 5550 3500
Text GLabel 5850 3500 2    50   Input ~ 0
ILIM_SET
Wire Wire Line
	5550 3300 5550 3500
Wire Wire Line
	5150 3300 5250 3300
Wire Wire Line
	5150 3100 5250 3100
$Comp
L Device:C C4
U 1 1 5E278CCE
P 9250 3450
F 0 "C4" V 8998 3450 50  0000 C CNN
F 1 "100n" V 9089 3450 50  0000 C CNN
F 2 "Capacitors_SMD:C_0603" H 9288 3300 50  0001 C CNN
F 3 "~" H 9250 3450 50  0001 C CNN
	1    9250 3450
	0    1    1    0   
$EndComp
$Comp
L power:GND #PWR013
U 1 1 5E279883
P 9100 3450
F 0 "#PWR013" H 9100 3200 50  0001 C CNN
F 1 "GND" H 9105 3277 50  0000 C CNN
F 2 "" H 9100 3450 50  0001 C CNN
F 3 "" H 9100 3450 50  0001 C CNN
	1    9100 3450
	1    0    0    -1  
$EndComp
Wire Wire Line
	9400 3450 9400 3850
Connection ~ 9400 3850
Wire Wire Line
	10050 3450 10050 3850
Wire Notes Line
	4550 2500 4550 1150
Wire Notes Line
	2850 2500 4550 2500
Wire Notes Line
	4550 1150 2850 1150
Text Notes 5350 1950 0    50   ~ 0
SDP
Text Notes 5200 2350 0    50   ~ 0
DCP/CDP
Text Notes 6200 2100 0    50   ~ 0
FINISHED
Text Notes 9050 4700 0    50   ~ 0
OUT_disabled
Text Notes 4950 3700 0    50   ~ 0
100mA hiccup mode, simulates shitty cable\n(experimental, not allowed by USB spec)
Wire Wire Line
	8200 3750 8350 3750
Wire Wire Line
	5250 3500 4800 3500
$Comp
L power:GND #PWR014
U 1 1 5EA757D2
P 4800 3500
F 0 "#PWR014" H 4800 3250 50  0001 C CNN
F 1 "GND" H 4805 3327 50  0000 C CNN
F 2 "" H 4800 3500 50  0001 C CNN
F 3 "" H 4800 3500 50  0001 C CNN
	1    4800 3500
	1    0    0    -1  
$EndComp
$Comp
L Device:R R12
U 1 1 5EA734D8
P 5400 3500
F 0 "R12" V 5350 3750 50  0000 C CNN
F 1 "470k" V 5400 3500 50  0000 C CNN
F 2 "Resistors_SMD:R_0603" V 5330 3500 50  0001 C CNN
F 3 "~" H 5400 3500 50  0001 C CNN
	1    5400 3500
	0    1    1    0   
$EndComp
Connection ~ 5250 3300
Connection ~ 5250 3100
Text GLabel 5150 3300 0    50   Input ~ 0
Ilimit_500
Text GLabel 5150 3100 0    50   Input ~ 0
Ilimit_1500
Wire Notes Line
	6750 3750 6750 2550
Wire Notes Line
	4600 3750 6750 3750
Text Notes 5050 1700 0    50   ~ 0
NOTE: When charging finished, use 50%PWM \nto avoid confusing DCP indicator override
Wire Notes Line
	6750 2500 6750 1150
Wire Notes Line
	6750 1150 4600 1150
Wire Notes Line
	6750 2500 4600 2500
$Comp
L Device:C C5
U 1 1 5E427717
P 10200 3450
F 0 "C5" V 9948 3450 50  0000 C CNN
F 1 "22u" V 10039 3450 50  0000 C CNN
F 2 "Capacitors_SMD:C_0603" H 10238 3300 50  0001 C CNN
F 3 "~" H 10200 3450 50  0001 C CNN
	1    10200 3450
	0    1    1    0   
$EndComp
Connection ~ 5200 2250
Wire Wire Line
	5050 2250 5200 2250
Wire Wire Line
	5200 1950 5450 1950
Wire Wire Line
	5200 2250 5200 1950
Wire Wire Line
	5450 2250 5200 2250
Text GLabel 6000 2150 2    50   Input ~ 0
indicators
Wire Wire Line
	5950 1950 6000 1950
Connection ~ 5950 1950
Wire Wire Line
	5950 2150 5950 1950
Wire Wire Line
	6000 2150 5950 2150
Wire Wire Line
	5750 1950 5950 1950
$Comp
L power:GND #PWR06
U 1 1 5E362762
P 5750 2250
F 0 "#PWR06" H 5750 2000 50  0001 C CNN
F 1 "GND" H 5755 2077 50  0000 C CNN
F 2 "" H 5750 2250 50  0001 C CNN
F 3 "" H 5750 2250 50  0001 C CNN
	1    5750 2250
	1    0    0    -1  
$EndComp
$Comp
L Device:LED D_charging_port2
U 1 1 5E32AEBF
P 5600 2250
F 0 "D_charging_port2" H 5600 2050 50  0000 C CNN
F 1 "green" H 5600 2150 50  0000 C CNN
F 2 "Diodes_SMD:D_0603" H 5600 2250 50  0001 C CNN
F 3 "~" H 5600 2250 50  0001 C CNN
	1    5600 2250
	-1   0    0    1   
$EndComp
$Comp
L Device:LED D_FINISHED1
U 1 1 5E68BF30
P 6450 1950
F 0 "D_FINISHED1" H 6450 1750 50  0000 C CNN
F 1 "blue" H 6450 1850 50  0000 C CNN
F 2 "Diodes_SMD:D_0603" H 6450 1950 50  0001 C CNN
F 3 "~" H 6450 1950 50  0001 C CNN
	1    6450 1950
	-1   0    0    1   
$EndComp
Connection ~ 9900 3850
Wire Wire Line
	9900 3850 9850 3850
Wire Wire Line
	10050 3850 9900 3850
Wire Wire Line
	9900 3700 9900 3850
Connection ~ 9500 3850
Wire Wire Line
	9500 3850 9550 3850
Wire Wire Line
	9400 3850 9500 3850
Wire Wire Line
	9500 3700 9500 3850
Text GLabel 9900 3700 1    50   Input ~ 0
ADC_B
Text GLabel 9500 3700 1    50   Input ~ 0
ADC_A
Wire Wire Line
	9400 3950 9400 3850
Connection ~ 10050 3850
$Comp
L power:GND #PWR015
U 1 1 5E1D207D
P 10350 3450
F 0 "#PWR015" H 10350 3200 50  0001 C CNN
F 1 "GND" H 10355 3277 50  0000 C CNN
F 2 "" H 10350 3450 50  0001 C CNN
F 3 "" H 10350 3450 50  0001 C CNN
	1    10350 3450
	1    0    0    -1  
$EndComp
$Comp
L Device:R Rshunt1
U 1 1 5E1E59E1
P 9700 3850
F 0 "Rshunt1" V 9500 3850 50  0000 C CNN
F 1 "10mΩ" V 9600 3850 50  0000 C CNN
F 2 "Resistors_SMD:R_2512" V 9630 3850 50  0001 C CNN
F 3 "~" H 9700 3850 50  0001 C CNN
	1    9700 3850
	0    1    1    0   
$EndComp
Wire Wire Line
	9600 4050 10050 4050
Wire Wire Line
	9600 4150 10050 4150
Connection ~ 10350 4450
Wire Wire Line
	10450 4450 10350 4450
$Comp
L power:GND #PWR021
U 1 1 5E1B6266
P 10350 4450
F 0 "#PWR021" H 10350 4200 50  0001 C CNN
F 1 "GND" H 10355 4277 50  0000 C CNN
F 2 "" H 10350 4450 50  0001 C CNN
F 3 "" H 10350 4450 50  0001 C CNN
	1    10350 4450
	1    0    0    -1  
$EndComp
$Comp
L Connector:USB_A J3
U 1 1 5E1AA31A
P 10350 4050
F 0 "J3" H 10250 4400 50  0000 R CNN
F 1 "USB_A" H 10550 4400 50  0000 R CNN
F 2 "Connectors:USB_A" H 10500 4000 50  0001 C CNN
F 3 " ~" H 10500 4000 50  0001 C CNN
	1    10350 4050
	-1   0    0    -1  
$EndComp
$Comp
L Device:R R11
U 1 1 5E1C4319
P 5400 3300
F 0 "R11" V 5350 3550 50  0000 C CNN
F 1 "100k" V 5400 3300 50  0000 C CNN
F 2 "Resistors_SMD:R_0603" V 5330 3300 50  0001 C CNN
F 3 "~" H 5400 3300 50  0001 C CNN
	1    5400 3300
	0    1    1    0   
$EndComp
$Comp
L Device:R R9
U 1 1 5E1C3E28
P 5400 3100
F 0 "R9" V 5350 3300 50  0000 C CNN
F 1 "36k" V 5400 3100 50  0000 C CNN
F 2 "Resistors_SMD:R_0603" V 5330 3100 50  0001 C CNN
F 3 "~" H 5400 3100 50  0001 C CNN
	1    5400 3100
	0    1    1    0   
$EndComp
Wire Wire Line
	4750 2250 4700 2250
Wire Wire Line
	9450 4250 9500 4250
Connection ~ 9450 4250
Wire Wire Line
	9450 4300 9450 4250
Wire Wire Line
	9100 4600 9450 4600
Wire Wire Line
	9400 4250 9450 4250
$Comp
L Device:R R14
U 1 1 5E626377
P 9450 4450
F 0 "R14" V 9350 4450 50  0000 C CNN
F 1 "4k7" V 9450 4450 50  0000 C CNN
F 2 "Resistors_SMD:R_0603" V 9380 4450 50  0001 C CNN
F 3 "~" H 9450 4450 50  0001 C CNN
	1    9450 4450
	1    0    0    -1  
$EndComp
$Comp
L Device:LED D_OUT_disabled1
U 1 1 5E6259A7
P 8950 4600
F 0 "D_OUT_disabled1" H 8950 4450 50  0000 C CNN
F 1 "red" H 8950 4500 50  0000 C CNN
F 2 "Diodes_SMD:D_0603" H 8950 4600 50  0001 C CNN
F 3 "~" H 8950 4600 50  0001 C CNN
	1    8950 4600
	-1   0    0    1   
$EndComp
Text Notes 9800 2000 0    50   ~ 0
short press: set \ntrigger current\n\nhold: change (cycle)\ncharging current \nlimit setting\n\nv.long hold: change\nchrg finished action\n(limits/cutoff)
Wire Notes Line
	9750 1200 9750 2050
Wire Notes Line
	8300 2100 8300 1150
Wire Notes Line
	10600 2100 8300 2100
Wire Wire Line
	8900 1550 9000 1550
Connection ~ 8900 1550
Wire Wire Line
	8800 1550 8900 1550
Connection ~ 8900 1850
Wire Wire Line
	9700 1550 9700 1850
Wire Wire Line
	8900 1850 9700 1850
$Comp
L Switch:SW_SPST SW1
U 1 1 5E55E8BE
P 9500 1550
F 0 "SW1" H 9500 1785 50  0000 C CNN
F 1 "SW_SPST" H 9500 1694 50  0000 C CNN
F 2 "Buttons_Switches_THT:SW_Tactile_SPST_Angled_PTS645Vx39-2LFS" H 9500 1550 50  0001 C CNN
F 3 "~" H 9500 1550 50  0001 C CNN
	1    9500 1550
	1    0    0    -1  
$EndComp
$Comp
L Device:R R1
U 1 1 5E55A027
P 9150 1550
F 0 "R1" V 9050 1550 50  0000 C CNN
F 1 "4k7" V 9150 1550 50  0000 C CNN
F 2 "Resistors_SMD:R_0603" V 9080 1550 50  0001 C CNN
F 3 "~" H 9150 1550 50  0001 C CNN
	1    9150 1550
	0    1    1    0   
$EndComp
$Comp
L power:GND #PWR02
U 1 1 5E559B5E
P 8900 1850
F 0 "#PWR02" H 8900 1600 50  0001 C CNN
F 1 "GND" H 8905 1677 50  0000 C CNN
F 2 "" H 8900 1850 50  0001 C CNN
F 3 "" H 8900 1850 50  0001 C CNN
	1    8900 1850
	1    0    0    -1  
$EndComp
$Comp
L Device:C C1
U 1 1 5E55932E
P 8900 1700
F 0 "C1" H 8800 1650 50  0000 R CNN
F 1 "100n" H 8800 1750 50  0000 R CNN
F 2 "Capacitors_SMD:C_0603" H 8938 1550 50  0001 C CNN
F 3 "~" H 8900 1700 50  0001 C CNN
	1    8900 1700
	-1   0    0    1   
$EndComp
Text GLabel 8800 1550 0    50   Input ~ 0
~user_button
Text Notes 4600 1500 0    50   ~ 0
if not a charging port (DCP or CDP) only draw 500mA.\nCharging finished when current pulled drops below \nprogrammed current threshold (% of current limit).\ndefault: 50% of Imax, reset clears it, requiring config.
Wire Notes Line
	4600 1150 4600 2500
$Comp
L Device:R R5
U 1 1 5E4E7130
P 4900 2250
F 0 "R5" V 4800 2250 50  0000 C CNN
F 1 "4k7" V 4900 2250 50  0000 C CNN
F 2 "Resistors_SMD:R_0603" V 4830 2250 50  0001 C CNN
F 3 "~" H 4900 2250 50  0001 C CNN
	1    4900 2250
	0    1    1    0   
$EndComp
$Comp
L power:GND #PWR03
U 1 1 5E4E45EA
P 6600 1950
F 0 "#PWR03" H 6600 1700 50  0001 C CNN
F 1 "GND" H 6605 1777 50  0000 C CNN
F 2 "" H 6600 1950 50  0001 C CNN
F 3 "" H 6600 1950 50  0001 C CNN
	1    6600 1950
	1    0    0    -1  
$EndComp
$Comp
L power:+5V #PWR05
U 1 1 5E4DDE51
P 4700 2250
F 0 "#PWR05" H 4700 2100 50  0001 C CNN
F 1 "+5V" H 4715 2423 50  0000 C CNN
F 2 "" H 4700 2250 50  0001 C CNN
F 3 "" H 4700 2250 50  0001 C CNN
	1    4700 2250
	1    0    0    -1  
$EndComp
$Comp
L Device:R R3
U 1 1 5E4ADBCE
P 6150 1950
F 0 "R3" V 6050 1950 50  0000 C CNN
F 1 "4k7" V 6150 1950 50  0000 C CNN
F 2 "Resistors_SMD:R_0603" V 6080 1950 50  0001 C CNN
F 3 "~" H 6150 1950 50  0001 C CNN
	1    6150 1950
	0    1    1    0   
$EndComp
$Comp
L Device:LED D_charging_port1
U 1 1 5E4A0551
P 5600 1950
F 0 "D_charging_port1" H 5600 1750 50  0000 C CNN
F 1 "red" H 5600 1850 50  0000 C CNN
F 2 "Diodes_SMD:D_0603" H 5600 1950 50  0001 C CNN
F 3 "~" H 5600 1950 50  0001 C CNN
	1    5600 1950
	-1   0    0    1   
$EndComp
Text Notes 4700 2700 0    50   ~ 0
current limit settings: 100mA, 600mA, 1.6A, 2.2A\n
Wire Wire Line
	5950 3200 6200 3200
Text GLabel 9500 4250 2    50   Input ~ 0
CHRG_EN
$Comp
L vegii:TPS2511 U1
U 1 1 5E1A9147
P 8800 4000
F 0 "U1" H 8900 4300 50  0000 C CNN
F 1 "TPS2511" H 8850 4200 50  0000 C CNN
F 2 "Housings_SSOP:MSOP-8-1EP_3x3mm_Pitch0.65mm" H 8800 4000 50  0001 C CNN
F 3 "" H 8800 4000 50  0001 C CNN
	1    8800 4000
	1    0    0    -1  
$EndComp
Connection ~ 6550 3000
Wire Wire Line
	6550 3200 6550 3000
Wire Wire Line
	6500 3200 6550 3200
$Comp
L Device:R R10
U 1 1 5E2D9A94
P 6350 3200
F 0 "R10" V 6250 3200 50  0000 C CNN
F 1 "10k" V 6350 3200 50  0000 C CNN
F 2 "Resistors_SMD:R_0603" V 6280 3200 50  0001 C CNN
F 3 "~" H 6350 3200 50  0001 C CNN
	1    6350 3200
	0    1    1    0   
$EndComp
Wire Wire Line
	5950 3000 6200 3000
Wire Wire Line
	6500 3000 6550 3000
$Comp
L power:+5V #PWR011
U 1 1 5E2D130D
P 6550 3000
F 0 "#PWR011" H 6550 2850 50  0001 C CNN
F 1 "+5V" H 6565 3173 50  0000 C CNN
F 2 "" H 6550 3000 50  0001 C CNN
F 3 "" H 6550 3000 50  0001 C CNN
	1    6550 3000
	1    0    0    -1  
$EndComp
$Comp
L Device:R R8
U 1 1 5E2B1B68
P 6350 3000
F 0 "R8" V 6250 3000 50  0000 C CNN
F 1 "10k" V 6350 3000 50  0000 C CNN
F 2 "Resistors_SMD:R_0603" V 6280 3000 50  0001 C CNN
F 3 "~" H 6350 3000 50  0001 C CNN
	1    6350 3000
	0    1    1    0   
$EndComp
Wire Wire Line
	5250 3000 5650 3000
Wire Wire Line
	5250 3100 5250 3000
Wire Wire Line
	5250 3200 5250 3300
Wire Wire Line
	5650 3200 5250 3200
$Comp
L Device:LED D_1.5A1
U 1 1 5E2A332E
P 5800 3000
F 0 "D_1.5A1" H 5900 2900 50  0000 C CNN
F 1 "green" H 6000 2950 50  0000 C CNN
F 2 "Diodes_SMD:D_0603" H 5800 3000 50  0001 C CNN
F 3 "~" H 5800 3000 50  0001 C CNN
	1    5800 3000
	1    0    0    1   
$EndComp
$Comp
L Device:LED D_500mA1
U 1 1 5E2A2B48
P 5800 3200
F 0 "D_500mA1" H 5900 3100 50  0000 C CNN
F 1 "yellow" H 6000 3150 50  0000 C CNN
F 2 "Diodes_SMD:D_0603" H 5800 3200 50  0001 C CNN
F 3 "~" H 5800 3200 50  0001 C CNN
	1    5800 3200
	1    0    0    1   
$EndComp
Wire Wire Line
	5550 3100 5550 3300
Connection ~ 5550 3300
Wire Wire Line
	9500 4050 9600 4150
Wire Wire Line
	9400 4050 9500 4050
Wire Wire Line
	9500 4150 9400 4150
Wire Wire Line
	9600 4050 9500 4150
Wire Notes Line
	8300 1150 10600 1150
Wire Notes Line
	10600 1150 10600 2100
Wire Notes Line
	6800 2100 6800 1150
Text Notes 6850 1400 0    50   ~ 0
(clears settings if user_button\nis active when released)\n\n
Wire Wire Line
	8100 1550 8100 1850
Wire Wire Line
	7300 1550 7400 1550
Connection ~ 7300 1550
Wire Wire Line
	7200 1550 7300 1550
Connection ~ 7300 1850
Wire Wire Line
	7300 1850 8100 1850
$Comp
L Switch:SW_SPST SW2
U 1 1 5E5C0EF8
P 7900 1550
F 0 "SW2" H 7900 1800 50  0000 C CNN
F 1 "SW_SPST" H 7900 1694 50  0000 C CNN
F 2 "Buttons_Switches_SMD:SW_SPST_SKQG" H 7900 1550 50  0001 C CNN
F 3 "~" H 7900 1550 50  0001 C CNN
	1    7900 1550
	1    0    0    -1  
$EndComp
$Comp
L Device:R R6
U 1 1 5E5C0EEE
P 7550 1550
F 0 "R6" V 7450 1550 50  0000 C CNN
F 1 "4k7" V 7550 1550 50  0000 C CNN
F 2 "Resistors_SMD:R_0603" V 7480 1550 50  0001 C CNN
F 3 "~" H 7550 1550 50  0001 C CNN
	1    7550 1550
	0    1    1    0   
$EndComp
$Comp
L power:GND #PWR09
U 1 1 5E5C0EE4
P 7300 1850
F 0 "#PWR09" H 7300 1600 50  0001 C CNN
F 1 "GND" H 7305 1677 50  0000 C CNN
F 2 "" H 7300 1850 50  0001 C CNN
F 3 "" H 7300 1850 50  0001 C CNN
	1    7300 1850
	1    0    0    -1  
$EndComp
$Comp
L Device:C C3
U 1 1 5E5C0EDA
P 7300 1700
F 0 "C3" H 7200 1650 50  0000 R CNN
F 1 "100n" H 7200 1750 50  0000 R CNN
F 2 "Capacitors_SMD:C_0603" H 7338 1550 50  0001 C CNN
F 3 "~" H 7300 1700 50  0001 C CNN
	1    7300 1700
	-1   0    0    1   
$EndComp
Text GLabel 7200 1550 0    50   Input ~ 0
~RST
Wire Notes Line
	8200 2100 6800 2100
Wire Notes Line
	6800 1150 8200 1150
Wire Notes Line
	8200 1150 8200 2100
Wire Notes Line
	6750 2550 4600 2550
Wire Notes Line
	4600 2550 4600 3750
Wire Notes Line
	1300 1150 2800 1150
Wire Notes Line
	2800 1150 2800 1900
Wire Notes Line
	2800 1900 1300 1900
Wire Notes Line
	1300 1900 1300 1150
Text Notes 2100 1400 0    50   ~ 0
has its own LDO\nand i2c pullups
Text GLabel 1800 1450 0    50   Input ~ 0
SCL
Text GLabel 1800 1350 0    50   Input ~ 0
SDA
Wire Wire Line
	1400 1550 1800 1550
$Comp
L power:+5V #PWR010
U 1 1 5EBCD3F0
P 1400 1550
F 0 "#PWR010" H 1400 1400 50  0001 C CNN
F 1 "+5V" H 1415 1723 50  0000 C CNN
F 2 "" H 1400 1550 50  0001 C CNN
F 3 "" H 1400 1550 50  0001 C CNN
	1    1400 1550
	1    0    0    -1  
$EndComp
$Comp
L power:GND #PWR012
U 1 1 5EBCAECF
P 1800 1650
F 0 "#PWR012" H 1800 1400 50  0001 C CNN
F 1 "GND" H 1805 1477 50  0000 C CNN
F 2 "" H 1800 1650 50  0001 C CNN
F 3 "" H 1800 1650 50  0001 C CNN
	1    1800 1650
	1    0    0    -1  
$EndComp
$Comp
L Connector_Generic:Conn_01x04 J2
U 1 1 5EBC8A04
P 2000 1450
F 0 "J2" H 2080 1442 50  0000 L CNN
F 1 "OLED_module" H 2080 1351 50  0000 L CNN
F 2 "" H 2000 1450 50  0001 C CNN
F 3 "~" H 2000 1450 50  0001 C CNN
	1    2000 1450
	1    0    0    -1  
$EndComp
Text GLabel 3750 4550 2    50   Input ~ 0
~user_button
$EndSCHEMATC
